{
  "$schema": "./node_modules/@biomejs/biome/configuration_schema.json",
  "linter": {
    "ignore": [
      "dist",
      ".eslintrc.cjs"
    ]
  },
  "overrides": [
    {
      "include": [
        "*.ts",
        "*.tsx",
        "*.mts",
        "*.cts"
      ]
    }
  ]
}
